2017-02-01 04:04:28.906 CET [9910] LOG:  database system was shut down at 2017-02-01 04:04:28 CET
2017-02-01 04:04:28.907 CET [9910] LOG:  MultiXact member wraparound protections are now enabled
2017-02-01 04:04:28.909 CET [9909] LOG:  database system is ready to accept connections
2017-02-01 04:04:28.910 CET [9914] LOG:  autovacuum launcher started
2017-02-01 04:04:28.912 CET [9916] LOG:  logical replication launcher started
2017-02-01 04:04:29.790 CET [9911] LOG:  checkpoint starting: immediate force wait flush-all
2017-02-01 04:04:29.840 CET [9911] LOG:  checkpoint complete: wrote 3 buffers (0.0%); 0 transaction log file(s) added, 0 removed, 0 recycled; write=0.047 s, sync=0.000 s, total=0.049 s; sync files=3, longest=0.000 s, average=0.000 s; distance=1 kB, estimate=1 kB
2017-02-01 04:04:29.934 CET [9911] LOG:  checkpoint starting: immediate force wait
2017-02-01 04:04:29.968 CET [9911] LOG:  checkpoint complete: wrote 0 buffers (0.0%); 0 transaction log file(s) added, 0 removed, 0 recycled; write=0.033 s, sync=0.000 s, total=0.034 s; sync files=0, longest=0.000 s, average=0.000 s; distance=0 kB, estimate=1 kB
2017-02-01 04:34:29.077 CET [9911] LOG:  checkpoint starting: time
2017-02-01 04:40:11.000 CET [9911] LOG:  checkpoint complete: wrote 846433 buffers (80.7%); 0 transaction log file(s) added, 0 removed, 0 recycled; write=341.414 s, sync=0.359 s, total=341.923 s; sync files=64, longest=0.328 s, average=0.005 s; distance=25801660 kB, estimate=25801660 kB
2017-02-01 04:40:11.000 CET [9911] LOG:  checkpoint starting: immediate force wait
2017-02-01 04:40:27.496 CET [9911] LOG:  checkpoint complete: wrote 599338 buffers (57.2%); 0 transaction log file(s) added, 0 removed, 1575 recycled; write=13.851 s, sync=0.332 s, total=16.495 s; sync files=27, longest=0.313 s, average=0.012 s; distance=10797284 kB, estimate=24301222 kB
2017-02-01 05:04:42.365 CET [9911] LOG:  checkpoint starting: xlog
2017-02-01 05:29:03.446 CET [9911] LOG:  checkpoint complete: wrote 734151 buffers (70.0%); 0 transaction log file(s) added, 0 removed, 659 recycled; write=1460.224 s, sync=0.130 s, total=1461.081 s; sync files=37, longest=0.102 s, average=0.003 s; distance=26831647 kB, estimate=26831647 kB
2017-02-01 05:33:31.313 CET [9911] LOG:  checkpoint starting: xlog
2017-02-01 05:57:56.171 CET [9911] LOG:  checkpoint complete: wrote 736594 buffers (70.2%); 0 transaction log file(s) added, 655 removed, 983 recycled; write=1462.749 s, sync=0.102 s, total=1464.857 s; sync files=36, longest=0.047 s, average=0.002 s; distance=26837246 kB, estimate=26837246 kB
2017-02-01 06:02:20.367 CET [9911] LOG:  checkpoint starting: xlog
2017-02-01 06:26:07.550 CET [9911] LOG:  checkpoint complete: wrote 758344 buffers (72.3%); 0 transaction log file(s) added, 655 removed, 983 recycled; write=1425.049 s, sync=0.100 s, total=1427.183 s; sync files=36, longest=0.040 s, average=0.002 s; distance=26837081 kB, estimate=26837230 kB
2017-02-01 06:30:51.402 CET [9911] LOG:  checkpoint starting: xlog
2017-02-01 06:40:28.056 CET [9909] LOG:  received fast shutdown request
2017-02-01 06:40:28.056 CET [9909] LOG:  aborting any active transactions
2017-02-01 06:40:28.057 CET [17490] FATAL:  terminating autovacuum process due to administrator command
2017-02-01 06:40:28.062 CET [9916] LOG:  logical replication launcher shutting down
2017-02-01 06:40:28.063 CET [9914] LOG:  autovacuum launcher shutting down
2017-02-01 06:40:33.096 CET [9911] LOG:  checkpoint complete: wrote 687771 buffers (65.6%); 0 transaction log file(s) added, 143 removed, 1495 recycled; write=579.343 s, sync=0.014 s, total=581.693 s; sync files=37, longest=0.004 s, average=0.000 s; distance=26836929 kB, estimate=26837200 kB
2017-02-01 06:40:33.096 CET [9911] LOG:  shutting down
2017-02-01 06:40:33.097 CET [9911] LOG:  checkpoint starting: shutdown immediate
2017-02-01 06:40:59.434 CET [9911] LOG:  checkpoint complete: wrote 873827 buffers (83.3%); 0 transaction log file(s) added, 0 removed, 1638 recycled; write=18.087 s, sync=0.514 s, total=26.338 s; sync files=30, longest=0.397 s, average=0.017 s; distance=15765897 kB, estimate=25730070 kB
2017-02-01 06:41:00.600 CET [9909] LOG:  database system is shut down
